{
	"info": {
		"_postman_id": "fd720077-35af-4ca0-a6b4-8a492c62bd4b",
		"name": "Agenda",
		"schema": "https://schema.getpostman.com/json/collection/v2.1.0/collection.json"
	},
	"item": [
		{
			"name": "Consulta todos contatos",
			"request": {
				"method": "GET",
				"header": [],
				"url": {
					"raw": "http://localhost:8000/contatos",
					"protocol": "http",
					"host": [
						"localhost"
					],
					"port": "8000",
					"path": [
						"contatos"
					]
				}
			},
			"response": []
		},
		{
			"name": "Gravar contato",
			"request": {
				"method": "POST",
				"header": [],
				"body": {
					"mode": "raw",
					"raw": "    {\r\n        \"nome\": \"Bruno Gomes Santos\",\r\n        \"idade\": 32,\r\n        \"email\": \"brunogomesstar@gmail.com\",\r\n        \"numero\": \"(11) 19459-8715\"\r\n    }",
					"options": {
						"raw": {
							"language": "json"
						}
					}
				},
				"url": {
					"raw": "http://localhost:8000/contatos",
					"protocol": "http",
					"host": [
						"localhost"
					],
					"port": "8000",
					"path": [
						"contatos"
					]
				}
			},
			"response": []
		}
	]
}